{
  "mitarbeiterin": {
    "gender": [ "female" ],
    "salutation": [ "Frau" ],
    "title": [],
    "firstname": [ "Andrea", "Bettina", "Claudia"],
    "lastname": [ "Mustermann" ],
    "login": [ "mustermann" ],
    "email": [ "mustermann@fakenews.de" ],
    "street": [ "Badstraße", "Turmstraße", "Südbahnhof", "Chauseestraße", "Elisenstraße", "Poststraße", "Seestraße" ],
    "housenumber": [ "1", "2a", "3b", "4", "5c", "6", "7d", "8", "9", "10" ],
    "zip": [ "33334", "33619", "32257" ],
    "city": [ "Gütersloh", "Bielefeld", "Bünde" ]
  },
  "schurke": {
    "gender": [ "male" ],
    "salutation": [],
    "title": [ "Doctor" ],
    "firstname": [],
    "lastname": [ "Jekyll", "Frankenstein", "Mabuse", "Doom" ],
    "login": [ "doctor" ],
    "email": [ "doctor@fictionmail.com" ],
    "street": [],
    "housenumber": []
  }
}
